<?xml version="1.0" standalone="no"?>
<!DOCTYPE svg PUBLIC "-//W3C//DTD SVG 20010904//EN"
 "http://www.w3.org/TR/2001/REC-SVG-20010904/DTD/svg10.dtd">
<svg version="1.0" xmlns="http://www.w3.org/2000/svg"
 width="700.000000pt" height="700.000000pt" viewBox="0 0 700.000000 700.000000"
 preserveAspectRatio="xMidYMid meet">
<metadata>
Created by potrace 1.11, written by Peter Selinger 2001-2013
</metadata>
<g transform="translate(0.000000,700.000000) scale(0.100000,-0.100000)"
fill="#000000" stroke="none">
<path d="M2895 6981 c-105 -47 -241 -236 -305 -421 -44 -130 -62 -298 -45
-430 24 -187 109 -377 269 -600 74 -102 140 -223 167 -305 9 -24 14 -85 14
-155 0 -107 -2 -120 -33 -190 -18 -41 -64 -120 -104 -174 -78 -109 -91 -151
-69 -233 30 -112 159 -173 269 -128 99 42 246 240 306 411 112 321 56 645
-168 974 -28 41 -53 77 -56 80 -22 20 -84 120 -114 181 -66 139 -83 287 -45
412 19 64 93 196 137 243 63 69 79 160 43 239 -46 100 -164 143 -266 96z"/>
<path d="M1408 6390 c-88 -16 -163 -100 -231 -264 -73 -175 -98 -349 -71 -500
25 -134 57 -214 140 -342 98 -153 122 -222 118 -344 -2 -81 -43 -213 -87 -280
-33 -49 -44 -88 -41 -138 6 -93 91 -181 183 -190 110 -10 182 48 260 210 82
172 107 275 105 443 -1 167 -43 288 -164 480 -87 139 -102 184 -103 302 0 85
37 209 89 295 19 31 37 74 40 96 18 132 -107 254 -238 232z"/>
<path d="M4505 6390 c-87 -13 -136 -59 -202 -185 -124 -240 -152 -482 -79
-699 39 -116 85 -198 161 -288 105 -125 91 -394 -31 -577 -64 -97 -21 -237 89
-290 84 -41 187 -17 246 57 74 94 160 302 178 432 30 216 -21 420 -154 614
-133 194 -141 408 -23 599 54 88 59 154 17 232 -24 43 -85 91 -132 103 -16 4
-48 5 -70 2z"/>
<path d="M120 3690 c-51 -27 -80 -57 -102 -107 -18 -41 -19 -59 -13 -231 3
-103 8 -200 9 -217 2 -16 7 -68 10 -113 4 -46 9 -92 11 -101 2 -10 6 -42 10
-72 28 -237 110 -585 197 -844 110 -327 293 -700 470 -957 149 -217 316 -407
483 -551 39 -33 72 -63 75 -66 15 -18 167 -124 245 -172 113 -69 155 -91 269
-138 132 -55 267 -91 406 -109 77 -10 1532 -9 1605 1 51 7 90 16 237 51 50 13
176 64 273 111 310 151 620 420 873 758 l73 97 337 1 c185 1 348 2 362 4 257
20 517 135 698 309 163 156 276 360 328 591 18 84 25 293 12 390 -39 291 -206
575 -445 753 -82 62 -214 131 -313 165 -87 29 -117 35 -235 51 -19 3 -20 12
-25 137 -6 160 -19 193 -100 249 l-35 25 -2840 2 c-2760 2 -2841 2 -2875 -17z
m5434 -425 c-4 -80 -16 -238 -19 -248 -2 -7 -6 -41 -10 -77 -5 -55 -23 -172
-41 -270 -2 -14 -7 -41 -10 -60 -3 -19 -23 -103 -44 -187 -179 -702 -508
-1258 -978 -1653 -218 -183 -503 -319 -732 -349 -111 -14 -1413 -10 -1501 5
-240 42 -505 176 -733 373 -349 302 -613 687 -800 1168 -63 161 -127 365 -156
493 -40 181 -73 364 -85 470 -3 30 -8 71 -10 90 -2 19 -7 73 -10 120 -3 47 -8
102 -11 123 l-5 37 2573 -2 2573 -3 -1 -30z m489 -402 c445 -110 673 -614 466
-1027 -100 -197 -299 -345 -514 -382 -45 -7 -476 -14 -487 -7 -4 2 5 30 21 61
83 165 192 444 242 617 11 39 22 77 25 85 10 32 54 206 58 230 3 14 14 70 25
125 11 55 22 120 25 145 4 25 11 75 17 112 12 77 -2 72 122 41z"/>
</g>
</svg>
